^C:\USERS\משתמש\DESKTOP\C++\LESSON-12\LESSON 12 PART 2\LESSON 12 PART 2\LESSON 12 PART 2\DEBUG\MAIN.OBJ|C:\USERS\משתמש\DESKTOP\C++\LESSON-12\LESSON 12 PART 2\LESSON 12 PART 2\LESSON 12 PART 2\DEBUG\MESSAGESSENDER.OBJ
/OUT:"C:\USERS\משתמש\DESKTOP\C++\LESSON-12\LESSON 12 PART 2\LESSON 12 PART 2\DEBUG\LESSON 12 PART 2.EXE" /INCREMENTAL /NOLOGO KERNEL32.LIB USER32.LIB GDI32.LIB WINSPOOL.LIB COMDLG32.LIB ADVAPI32.LIB SHELL32.LIB OLE32.LIB OLEAUT32.LIB UUID.LIB ODBC32.LIB ODBCCP32.LIB /MANIFEST /MANIFESTUAC:"level='asInvoker' uiAccess='false'" /manifest:embed /DEBUG:FASTLINK /PDB:"C:\USERS\משתמש\DESKTOP\C++\LESSON-12\LESSON 12 PART 2\LESSON 12 PART 2\DEBUG\LESSON 12 PART 2.PDB" /SUBSYSTEM:CONSOLE /TLBID:1 /DYNAMICBASE /NXCOMPAT /IMPLIB:"C:\USERS\משתמש\DESKTOP\C++\LESSON-12\LESSON 12 PART 2\LESSON 12 PART 2\DEBUG\LESSON 12 PART 2.LIB" /MACHINE:X86 DEBUG\MAIN.OBJ
DEBUG\MESSAGESSENDER.OBJ
