^C:\USERS\משתמש\DESKTOP\C++\LESSON-12\LESSON 12 PART 2\LESSON 12 PART 2\LESSON 12 PART 2\DEBUG\MAIN.OBJ|C:\USERS\משתמש\DESKTOP\C++\LESSON-12\LESSON 12 PART 2\LESSON 12 PART 2\LESSON 12 PART 2\DEBUG\MESSAGESSENDER.OBJ
C:\USERS\משתמש\DESKTOP\C++\LESSON-12\LESSON 12 PART 2\LESSON 12 PART 2\DEBUG\LESSON 12 PART 2.EXE
C:\USERS\משתמש\DESKTOP\C++\LESSON-12\LESSON 12 PART 2\LESSON 12 PART 2\DEBUG\LESSON 12 PART 2.ILK
C:\USERS\משתמש\DESKTOP\C++\LESSON-12\LESSON 12 PART 2\LESSON 12 PART 2\DEBUG\LESSON 12 PART 2.PDB
